…
## Part 2.

-   Load the ‘GSSvocab’ dataset from the ‘car’ package. This dataset
    contains people’s scores on an English vocabulary test and includes
    demographic information.

``` r
dataset.car <- carData::GSSvocab
dataset.car
```

    ## # A tibble: 28,867 × 8
    ##    year  gender nativeBorn ageGroup educGroup vocab   age  educ
    ##    <fct> <fct>  <fct>      <fct>    <fct>     <dbl> <dbl> <dbl>
    ##  1 1978  female yes        50-59    12 yrs       10    52    12
    ##  2 1978  female yes        60+      <12 yrs       6    74     9
    ##  3 1978  male   yes        30-39    <12 yrs       4    35    10
    ##  4 1978  female yes        50-59    12 yrs        9    50    12
    ##  5 1978  female yes        40-49    12 yrs        6    41    12
    ##  6 1978  male   yes        18-29    12 yrs        6    19    12
    ##  7 1978  male   yes        18-29    12 yrs        4    19    12
    ##  8 1978  male   yes        50-59    12 yrs        7    59    12
    ##  9 1978  female yes        40-49    16 yrs        8    49    16
    ## 10 1978  male   yes        18-29    12 yrs        3    21    12
    ## # ℹ 28,857 more rows

-   Filter for the year 1978 and remove rows with missing values (the
    function na.exclude() is one way to do this – check out the
    documentation!).

``` r
dataset.car.1978 <- dataset.car %>% 
  subset(year == 1978) %>% 
  drop_na()
dataset.car.1978
```

    ## # A tibble: 1,477 × 8
    ##    year  gender nativeBorn ageGroup educGroup vocab   age  educ
    ##    <fct> <fct>  <fct>      <fct>    <fct>     <dbl> <dbl> <dbl>
    ##  1 1978  female yes        50-59    12 yrs       10    52    12
    ##  2 1978  female yes        60+      <12 yrs       6    74     9
    ##  3 1978  male   yes        30-39    <12 yrs       4    35    10
    ##  4 1978  female yes        50-59    12 yrs        9    50    12
    ##  5 1978  female yes        40-49    12 yrs        6    41    12
    ##  6 1978  male   yes        18-29    12 yrs        6    19    12
    ##  7 1978  male   yes        18-29    12 yrs        4    19    12
    ##  8 1978  male   yes        50-59    12 yrs        7    59    12
    ##  9 1978  female yes        40-49    16 yrs        8    49    16
    ## 10 1978  male   yes        18-29    12 yrs        3    21    12
    ## # ℹ 1,467 more rows
…
